[
  {
    "type": "category",
    "name": "agriculture-fisheries-forestry-and-food",
    "title": "Agriculture, fisheries, forestry and food",
    "image_url": "agriculture.jpg"
  },
  {
    "type": "category",
    "name": "education-culture-and-sport",
    "title": "Education, culture and sport",
    "image_url": "education.jpg"
  },
  {
    "type": "category",
    "name": "environment",
    "title": "Environment",
    "image_url": "environment.jpg"
  },
  {
    "type": "category",
    "name": "energy",
    "title": "Energy",
    "image_url": "energy.jpg"
  },
  {
    "type": "category",
    "name": "transport",
    "title": "Transport",
    "image_url": "transport"
  },
  {
    "type": "category",
    "name": "science-and-technology",
    "title": "Science and technology",
    "image_url": "science.jpg"
  },
  {
    "type": "category",
    "name": "economy-and-finance",
    "title": "Economy and finance",
    "image_url": "economy.jpg"
  },
  {
    "type": "category",
    "name": "population-and-society",
    "title": "Population and society",
    "image_url": "population.jpg"
  },
  {
    "type": "category",
    "name": "health",
    "title": "Health",
    "image_url": "health.jpg"
  },
  {
    "type": "category",
    "name": "government-and-public-sector",
    "title": "Government and public sector",
    "image_url": "government.jpg"
  },
  {
    "type": "category",
    "name": "regions-and-cities",
    "title": "Regions and cities",
    "image_url": "regions.jpg"
  },
  {
    "type": "category",
    "name": "justice-legal-system-and-public-safety",
    "title": "Justice, legal system and public safety",
    "image_url": "justice.jpg"
  },
  {
    "type": "category",
    "name": "international-issues",
    "title": "International issues",
    "image_url": "international.jpg"
  }
]